{
    "jet_collection": "AntiKt4EMPFlowJets",
    "calibration": {
        "file": "fragments/pflow-calibration.json"
    },
    "selection": {
        "file": "fragments/pflow-selection.json"
    },
    "vertex_collection": "PrimaryVertices",
    "dl2_configs": [],
    "variables": {
        "btag": {
            "file": "fragments/single-btag-variables.json"
        },
        "default_mapping": {
            "file": "fragments/default-mapping.json"
        }
    },
    "tracks": [
        {
            "n_to_save": 40,
            "selection": {
                "file": "fragments/ip3d-loose-track-cuts.json"
            },
            "sort_order": "d0_significance",
            "btagging_link": "btaggingLink",
            "input_name": "BTagTrackToJetAssociator",
            "output_name": "tracks",
            "variables": {
                "file": "fragments/single-btag-track-variables.json"
            },
            "ip_prefix": "btagIp_"
        }
    ],
    "truths": [],
    "decorate": {
        "jet_aug": false,
        "btag_jes": true,
        "soft_muon": false,
        "track_truth_info": false,
        "track_sv_info": false,
        "track_lepton_id": false,
        "track_ambiguity_solver_ranking": false
    },
    "btagging_link": "btaggingLink"
}
